2023/bayes_explanation/csv/RigolDS2.csv

CH1(V),t0 = -5.55e-08s, tInc = 5e-10s,
+0.000000E+00,,
+0.000000E+00,,
+0.000000E+00,,
+0.000000E+00,,
+2.193572E-02,,
+2.193572E-02,,
+0.000000E+00,,
+0.000000E+00,,
+0.000000E+00,,
+2.193572E-02,,
+2.193572E-02,,
+2.193572E-02,,
+2.193572E-02,,
+0.000000E+00,,
+0.000000E+00,,
+2.193572E-02,,
+2.193572E-02,,
+2.193572E-02,,
+0.000000E+00,,
+0.000000E+00,,
+2.193572E-02,,
+2.193572E-02,,
+0.000000E+00,,
+0.000000E+00,,
+0.000000E+00,,
+2.193572E-02,,
+2.193572E-02,,
+2.193572E-02,,
+2.193572E-02,,
+0.000000E+00,,
+0.000000E+00,,
+0.000000E+00,,
+0.000000E+00,,
+2.193572E-02,,
+2.193572E-02,,
+2.193572E-02,,
+2.193572E-02,,
+0.000000E+00,,
+2.193572E-02,,
+2.193572E-02,,
+0.000000E+00,,
+2.193572E-02,,
+2.193572E-02,,
+2.193572E-02,,
+2.193572E-02,,
+2.193572E-02,,
+0.000000E+00,,
+0.000000E+00,,
+0.000000E+00,,
+0.000000E+00,,
+0.000000E+00,,
+2.193572E-02,,
+2.193572E-02,,
+2.193572E-02,,
+2.193572E-02,,
+0.000000E+00,,
+0.000000E+00,,
+0.000000E+00,,
+0.000000E+00,,
-4.387144E-02,,
-6.580716E-02,,
-1.096786E-01,,
-1.535500E-01,,
-1.974215E-01,,
-2.632287E-01,,
-2.851644E-01,,
-3.071001E-01,,
-3.290358E-01,,
-3.509715E-01,,
-3.729073E-01,,
-3.948430E-01,,
-3.729073E-01,,
-3.729073E-01,,
-3.509715E-01,,
-3.509715E-01,,
-3.509715E-01,,
-3.729073E-01,,
-3.948430E-01,,
-4.606501E-01,,
-5.264573E-01,,
-5.483930E-01,,
-5.264573E-01,,
-4.606501E-01,,
-4.167787E-01,,
-3.729073E-01,,
-3.509715E-01,,
-3.509715E-01,,
-3.509715E-01,,
-3.509715E-01,,
-3.290358E-01,,
-3.071001E-01,,
-2.851644E-01,,
-2.632287E-01,,
-2.632287E-01,,
-2.412929E-01,,
-2.193572E-01,,
-1.974215E-01,,
-1.754858E-01,,
-1.535500E-01,,
-1.535500E-01,,
-1.316143E-01,,
-1.316143E-01,,
-1.096786E-01,,
-8.774288E-02,,
-6.580716E-02,,
-6.580716E-02,,
-6.580716E-02,,
-4.387144E-02,,
-4.387144E-02,,
-4.387144E-02,,
-4.387144E-02,,
-6.580716E-02,,
-6.580716E-02,,
-6.580716E-02,,
-6.580716E-02,,
-6.580716E-02,,
-6.580716E-02,,
-4.387144E-02,,
-2.193572E-02,,
+0.000000E+00,,
+0.000000E+00,,
-2.193572E-02,,
-4.387144E-02,,
-2.193572E-02,,
-2.193572E-02,,
+0.000000E+00,,
+0.000000E+00,,
-2.193572E-02,,
-4.387144E-02,,
-4.387144E-02,,
-4.387144E-02,,
-2.193572E-02,,
-2.193572E-02,,
-2.193572E-02,,
-2.193572E-02,,
-2.193572E-02,,
+0.000000E+00,,
+0.000000E+00,,
+0.000000E+00,,
+0.000000E+00,,
+0.000000E+00,,
-2.193572E-02,,
-2.193572E-02,,
-2.193572E-02,,
-2.193572E-02,,
-2.193572E-02,,
+0.000000E+00,,
-2.193572E-02,,
-2.193572E-02,,
+0.000000E+00,,
+2.193572E-02,,
+2.193572E-02,,
+0.000000E+00,,
+0.000000E+00,,
+2.193572E-02,,
+2.193572E-02,,
+2.193572E-02,,
+2.193572E-02,,
+2.193572E-02,,
+2.193572E-02,,
+2.193572E-02,,
+4.387144E-02,,
+4.387144E-02,,
+2.193572E-02,,
+0.000000E+00,,
+0.000000E+00,,
+0.000000E+00,,
-2.193572E-02,,
+0.000000E+00,,
+0.000000E+00,,
+2.193572E-02,,
+2.193572E-02,,
+2.193572E-02,,
+0.000000E+00,,
+2.193572E-02,,
+2.193572E-02,,
+2.193572E-02,,
+0.000000E+00,,
-2.193572E-02,,
-4.387144E-02,,
-4.387144E-02,,
-2.193572E-02,,
-2.193572E-02,,
-2.193572E-02,,
+0.000000E+00,,
+0.000000E+00,,
+0.000000E+00,,
-2.193572E-02,,
-2.193572E-02,,
-2.193572E-02,,
+0.000000E+00,,
+0.000000E+00,,
+0.000000E+00,,
+0.000000E+00,,
+0.000000E+00,,
+0.000000E+00,,
+0.000000E+00,,
-2.193572E-02,,
+0.000000E+00,,
+0.000000E+00,,
